<?xml version="1.0" encoding="UTF-8" standalone="no"?>
<!-- Created with Inkscape (http://www.inkscape.org/) -->

<svg
   version="1.1"
   id="svg1363"
   width="19"
   height="22"
   viewBox="0 0 19 22"
   xmlns:xlink="http://www.w3.org/1999/xlink"
   xmlns="http://www.w3.org/2000/svg"
   xmlns:svg="http://www.w3.org/2000/svg">
  <defs
     id="defs1367" />
  <g
     id="g1369">
    <image
       width="19"
       height="22"
       preserveAspectRatio="none"
       xlink:href="data:image/png;base64,iVBORw0KGgoAAAANSUhEUgAAABMAAAAWCAYAAAAinad/AAAACXBIWXMAAA7DAAAOwwHHb6hkAAAA
GXRFWHRTb2Z0d2FyZQB3d3cuaW5rc2NhcGUub3Jnm+48GgAAAXlJREFUOI2t1E2LTmEYB/Dfc2Ik
ymIoZFYWszYiGpGFmbKWjYmsfQqyE76AhSxs2BHy8gUo0phYkBLlZaIZjSj8LeamM88zz9t47rrq
3Kfr+p373Pd1Dh1G2BOuhflwPeztlN8OGQlXwu+QprgRtveCDIfz4fsySD1+hIthYzOwOuwOZ8OX
LkhzzJW6sTAkzPQJtItnjfARm/re2NbxrcLsACCYrfBpQNi7Cq8HhL2q8LR24yrOlevjuI1DJS7g
HibxBqfwslb7RNhXO5EXpdceh21hOmwN98O6cDmsDxNhZ8n7WzveCKssHsKG8oRxLOAwpjCGgziG
X7hbtuYRHmIH5jFcNfiJO7XlnsQ0TpT55vK6U2W+BpdQ1WpuFYcw+Z8NO/GPDVV4vkJoJktXSTiy
QuxoS5OERrjZJ/QgNFqwAm4JH3qE3oeRZaEauCt87QItZLGFuo9wIHxuA82F/T1BNXC0fAFL/llh
tC+oBg6F0+FtOBPWdsr/A6k0eqvys6uCAAAAAElFTkSuQmCC
"
       id="image1371" />
  </g>
</svg>
